zahidkhann1@yahoo.com,Muscle Mania Gym Islamabad,MuscleMania@12,200,3136000006,We just do not make promises -We believe in Results!,"Al-Hussain Plaza Passport Office Basement G-10 Markaz, Islamabad",33.67516329,73.01564869,162,null,"[{
  ""is_all_day_open"": 0
 },
 {
  ""days"": {
   ""0"": 0,
   ""1"": 1,
   ""2"": 1,
   ""3"": 1,
   ""4"": 1,
   ""5"": 1,
   ""6"": 1
  }
 },
 {
  ""open_time"": {
   ""0"": ""07:00"",
   ""1"": ""07:00"",
   ""2"": ""07:00"",
   ""3"": ""07:00"",
   ""4"": ""07:00"",
   ""5"": ""07:00"",
   ""6"": ""07:00""
  }
 },
 {
  ""close_time"": {
   ""0"": ""23:45"",
   ""1"": ""23:45"",
   ""2"": ""23:45"",
   ""3"": ""23:45"",
   ""4"": ""23:45"",
   ""5"": ""23:45"",
   ""6"": ""23:45""
  }
 }
]","[2,3,5,9,12,14]",44000,1,Co-timing: 7am - 10am. Ladies timing: 10am - 2:30pm. Co-timing: 3pm - midnight
buttn0967@gmail.com,Pumping Iron Gym,Pumping@12,200,3082222885,"Pumping Iron Gym is a health club with facilities for sports, professional fitness and weight lose.",Main Sports Complex Liaqat Bagh Rawalpindi,33.60426609,73.06567873,162,null,"[{
  ""is_all_day_open"": 0
 },
 {
  ""days"": {
   ""0"": 0,
   ""1"": 1,
   ""2"": 1,
   ""3"": 1,
   ""4"": 1,
   ""5"": 1,
   ""6"": 1
  }
 },
 {
  ""open_time"": {
   ""0"": ""08:00"",
   ""1"": ""08:00"",
   ""2"": ""08:00"",
   ""3"": ""08:00"",
   ""4"": ""08:00"",
   ""5"": ""08:00"",
   ""6"": ""08:00""
  }
 },
 {
  ""close_time"": {
   ""0"": ""22:00"",
   ""1"": ""22:00"",
   ""2"": ""22:00"",
   ""3"": ""22:00"",
   ""4"": ""22:00"",
   ""5"": ""22:00"",
   ""6"": ""22:00""
  }
 }
]","[2,3,5,14]",44000,1,Open from 8am - 10pm. Please call to confirm ladies timing
info@stayfit.pk,Stay Fit,Stayfit@12,200,3331934880,"StayFit is first of its kind in Rawalpindi in the field of health and fitness. This is centrally located at famous Main Commercial Market, Rawalpindi, Pakistan","D-819, Above UBL Bank Main Commercial Market Satellite town, Rawalpindi",33.63802143,73.06714773,162,null,"[{
  ""is_all_day_open"": 0
 },
 {
  ""days"": {
   ""0"": 0,
   ""1"": 1,
   ""2"": 1,
   ""3"": 1,
   ""4"": 1,
   ""5"": 1,
   ""6"": 1
  }
 },
 {
  ""open_time"": {
   ""0"": ""07:00"",
   ""1"": ""07:00"",
   ""2"": ""07:00"",
   ""3"": ""07:00"",
   ""4"": ""07:00"",
   ""5"": ""07:00"",
   ""6"": ""07:00""
  }
 },
 {
  ""close_time"": {
   ""0"": ""23:00"",
   ""1"": ""23:00"",
   ""2"": ""23:00"",
   ""3"": ""23:00"",
   ""4"": ""23:00"",
   ""5"": ""23:00"",
   ""6"": ""23:00""
  }
 }
]","[2,3,5,9,12,14]",44000,1,Co-timing: 7am - 10:30am. Ladies timing: 10:30am - 5:30pm. Co-timing: 5:30pm - 11pm
msuhaildar@gmail.com,The Sailors Gym,Sailors@12,150,3215202502,Sail on your jourey to Fitness!,"Azeem Plaza, Oppo Mian Group of Co. Botan Khan Rd Chaklala Scheme 3, Rawalpindi",33.5838579,73.09602795,162,null,"[{
  ""is_all_day_open"": 0
 },
 {
  ""days"": {
   ""0"": 0,
   ""1"": 1,
   ""2"": 1,
   ""3"": 1,
   ""4"": 1,
   ""5"": 1,
   ""6"": 1
  }
 },
 {
  ""open_time"": {
   ""0"": ""09:00"",
   ""1"": ""09:00"",
   ""2"": ""09:00"",
   ""3"": ""09:00"",
   ""4"": ""09:00"",
   ""5"": ""09:00"",
   ""6"": ""09:00""
  }
 },
 {
  ""close_time"": {
   ""0"": ""23:45"",
   ""1"": ""23:45"",
   ""2"": ""23:45"",
   ""3"": ""23:45"",
   ""4"": ""23:45"",
   ""5"": ""23:45"",
   ""6"": ""23:45""
  }
 }
]","[2,3,4,5,9,12,14]",44000,1,Ladies timing: 9am - 2pm. Co-timing: 3pm - midnight
liaqatgym@yahoo.com,Fitwell Fitness And Martial Arts Academy,Fitwell@12,200,3335136740,A state of the art Fitness Facility in Islamabad!,"Basement Park Avenue Apartments, Markaz F 11/1 Islamabad, 44000, Pakistan",33.68253203,72.98633173,162,null,"[{
  ""is_all_day_open"": 0
 },
 {
  ""days"": {
   ""0"": 0,
   ""1"": 1,
   ""2"": 1,
   ""3"": 1,
   ""4"": 1,
   ""5"": 1,
   ""6"": 1
  }
 },
 {
  ""open_time"": {
   ""0"": ""08:00"",
   ""1"": ""08:00"",
   ""2"": ""08:00"",
   ""3"": ""08:00"",
   ""4"": ""08:00"",
   ""5"": ""08:00"",
   ""6"": ""08:00""
  }
 },
 {
  ""close_time"": {
   ""0"": ""23:00"",
   ""1"": ""23:00"",
   ""2"": ""23:00"",
   ""3"": ""23:00"",
   ""4"": ""23:00"",
   ""5"": ""23:00"",
   ""6"": ""23:00""
  }
 }
]","[2,3,5,9,12,13,14]",44000,1,Open from 8am - 11pm. Please call to confirm ladies timing
fizan100@gmail.com,Fast Fitness Gym,Fast@12,300,3334079847,One of the top Gyms in town. Come check us out!,"Plot 15, Block B1 Ghalib Market Gulberg III, Lahore, Punjab, Pakistan",31.513545,74.354501,162,null,"[{
  ""is_all_day_open"": 0
 },
 {
  ""days"": {
   ""0"": 0,
   ""1"": 1,
   ""2"": 1,
   ""3"": 1,
   ""4"": 1,
   ""5"": 1,
   ""6"": 1
  }
 },
 {
  ""open_time"": {
   ""0"": ""08:00"",
   ""1"": ""08:00"",
   ""2"": ""08:00"",
   ""3"": ""08:00"",
   ""4"": ""08:00"",
   ""5"": ""08:00"",
   ""6"": ""08:00""
  }
 },
 {
  ""close_time"": {
   ""0"": ""22:00"",
   ""1"": ""22:00"",
   ""2"": ""22:00"",
   ""3"": ""22:00"",
   ""4"": ""22:00"",
   ""5"": ""22:00"",
   ""6"": ""22:00""
  }
 }
]","[2,3,5,14]",54000,1,Open from 8am - 10pm. Please call to confirm ladies timing
nanitara4638@gmail.com,Cuts & Fitness Center,CutsF@12,250,3213740397,One of the top Gyms in town. Come check us out!,"Zohra Heights, 2nd FLoor, Main Market, Gulberg Lahore",31.52478834,74.34573423,162,null,"[{
  ""is_all_day_open"": 0
 },
 {
  ""days"": {
   ""0"": 0,
   ""1"": 1,
   ""2"": 1,
   ""3"": 1,
   ""4"": 1,
   ""5"": 1,
   ""6"": 1
  }
 },
 {
  ""open_time"": {
   ""0"": ""08:00"",
   ""1"": ""08:00"",
   ""2"": ""08:00"",
   ""3"": ""08:00"",
   ""4"": ""08:00"",
   ""5"": ""08:00"",
   ""6"": ""08:00""
  }
 },
 {
  ""close_time"": {
   ""0"": ""22:00"",
   ""1"": ""22:00"",
   ""2"": ""22:00"",
   ""3"": ""22:00"",
   ""4"": ""22:00"",
   ""5"": ""22:00"",
   ""6"": ""22:00""
  }
 }
]","[2,3,5,14]",54000,1,Open from 8am - 10pm. Please call to confirm ladies timing
noormark6@gmail.com,Body Image Fitness Studio  - Gulshan KDA Branch,Imagekda@12,300,302200308,One of the top Gyms in town. Come check us out!,"Block #3 KDA Market Gulsahan-e-iqbal, Karachi",24.92827371,67.09433412,162,null,"[{
  ""is_all_day_open"": 0
 },
 {
  ""days"": {
   ""0"": 0,
   ""1"": 1,
   ""2"": 1,
   ""3"": 1,
   ""4"": 1,
   ""5"": 1,
   ""6"": 1
  }
 },
 {
  ""open_time"": {
   ""0"": ""08:00"",
   ""1"": ""08:00"",
   ""2"": ""08:00"",
   ""3"": ""08:00"",
   ""4"": ""08:00"",
   ""5"": ""08:00"",
   ""6"": ""08:00""
  }
 },
 {
  ""close_time"": {
   ""0"": ""22:00"",
   ""1"": ""22:00"",
   ""2"": ""22:00"",
   ""3"": ""22:00"",
   ""4"": ""22:00"",
   ""5"": ""22:00"",
   ""6"": ""22:00""
  }
 }
]","[2,3,5,14]",74000,1,Open from 8am - 10pm. Please call to confirm ladies timing
laraibshahid95@gmail.com,Muscle Power,MuscleP@12,225,3368240006,One of the top Gyms in town. Come check us out!,"Haider Plaza, 1st floor, Near Gulshan Chowrangi. Block 5",24.93155194,67.05903279,162,null,"[{
  ""is_all_day_open"": 0
 },
 {
  ""days"": {
   ""0"": 0,
   ""1"": 1,
   ""2"": 1,
   ""3"": 1,
   ""4"": 1,
   ""5"": 1,
   ""6"": 1
  }
 },
 {
  ""open_time"": {
   ""0"": ""07:00"",
   ""1"": ""07:00"",
   ""2"": ""07:00"",
   ""3"": ""07:00"",
   ""4"": ""07:00"",
   ""5"": ""07:00"",
   ""6"": ""07:00""
  }
 },
 {
  ""close_time"": {
   ""0"": ""23:00"",
   ""1"": ""23:00"",
   ""2"": ""23:00"",
   ""3"": ""23:00"",
   ""4"": ""23:00"",
   ""5"": ""23:00"",
   ""6"": ""23:00""
  }
 }
]","[2,3,5,12,14]",74000,1,Open from 7am - 11pm. Ladies timing 9am -5pm
invopro@gmail.com,Fitness for Fun,Fitnessfun@12,350,3219234534,One of the top Gyms in town. Come check us out!,"301/7a Block 3, 23rd street Haider Ali Road? Delhi Mercantile Society Bahadur Yar Jang CHS, Karachi, Karachi City, Sindh 74500",24.88015052,67.07372355,162,null,"[{
  ""is_all_day_open"": 0
 },
 {
  ""days"": {
   ""0"": 0,
   ""1"": 1,
   ""2"": 1,
   ""3"": 1,
   ""4"": 1,
   ""5"": 1,
   ""6"": 1
  }
 },
 {
  ""open_time"": {
   ""0"": ""08:00"",
   ""1"": ""08:00"",
   ""2"": ""08:00"",
   ""3"": ""08:00"",
   ""4"": ""08:00"",
   ""5"": ""08:00"",
   ""6"": ""08:00""
  }
 },
 {
  ""close_time"": {
   ""0"": ""22:00"",
   ""1"": ""22:00"",
   ""2"": ""22:00"",
   ""3"": ""22:00"",
   ""4"": ""22:00"",
   ""5"": ""22:00"",
   ""6"": ""22:00""
  }
 }
]","[2,3,5,14]",74000,1,Open from 8am - 10pm. Please call to confirm ladies timing
fitnesstime@gmail.com,Fitness Time - Nazimabad,FItnessTi@12,175,3322291996,One of the top Gyms in town. Come check us out!,"Mashallah Tower Nazimbad #1 , Karachi. Opposite Arena Mutilimedia",24.90553874,67.03044324,162,null,"[{
  ""is_all_day_open"": 0
 },
 {
  ""days"": {
   ""0"": 0,
   ""1"": 1,
   ""2"": 1,
   ""3"": 1,
   ""4"": 1,
   ""5"": 1,
   ""6"": 1
  }
 },
 {
  ""open_time"": {
   ""0"": ""08:00"",
   ""1"": ""08:00"",
   ""2"": ""08:00"",
   ""3"": ""08:00"",
   ""4"": ""08:00"",
   ""5"": ""08:00"",
   ""6"": ""08:00""
  }
 },
 {
  ""close_time"": {
   ""0"": ""22:00"",
   ""1"": ""22:00"",
   ""2"": ""22:00"",
   ""3"": ""22:00"",
   ""4"": ""22:00"",
   ""5"": ""22:00"",
   ""6"": ""22:00""
  }
 }
]","[2,3,5,14]",74000,1,Open from 8am - 10pm. Please call to confirm ladies timing
7starfitness@gmail.com,7 star Fitness Club,7star@12,150,3054388723,One of the top Gyms in town. Come check us out!,"Back side of degree college, near sabzi mandi, Kasur",31.12942692,74.45672918,162,null,"[{
  ""is_all_day_open"": 0
 },
 {
  ""days"": {
   ""0"": 0,
   ""1"": 1,
   ""2"": 1,
   ""3"": 1,
   ""4"": 1,
   ""5"": 1,
   ""6"": 1
  }
 },
 {
  ""open_time"": {
   ""0"": ""08:00"",
   ""1"": ""08:00"",
   ""2"": ""08:00"",
   ""3"": ""08:00"",
   ""4"": ""08:00"",
   ""5"": ""08:00"",
   ""6"": ""08:00""
  }
 },
 {
  ""close_time"": {
   ""0"": ""22:00"",
   ""1"": ""22:00"",
   ""2"": ""22:00"",
   ""3"": ""22:00"",
   ""4"": ""22:00"",
   ""5"": ""22:00"",
   ""6"": ""22:00""
  }
 }
]","[2,3,5,14]",54000,1,Open from 8am - 10pm. Please call to confirm ladies timing
