<svg width="735" height="54" viewBox="0 0 735 54" fill="none" xmlns="http://www.w3.org/2000/svg">
<path opacity="0.86" d="M0.0340002 1.2V0.199997H-0.966V1.2H0.0340002ZM21.272 4.16L20.5559 4.85815L20.5649 4.86711L21.272 4.16ZM18.83 26.508L18.4564 25.5804L17.83 25.8327V26.508H18.83ZM18.83 26.656H17.83V27.4L18.5427 27.6138L18.83 26.656ZM22.974 30.282L22.0561 30.6789L22.0606 30.6893L22.0653 30.6995L22.974 30.282ZM24.38 50.336L23.3855 50.4407L23.3861 50.4464L24.38 50.336ZM25.12 53V54H26.6588L26.0338 52.5939L25.12 53ZM16.832 53L15.889 53.3328L16.1245 54H16.832V53ZM14.908 32.206L14.1231 32.8256L14.1329 32.838L14.1431 32.8501L14.908 32.206ZM8.174 30.8V29.8H7.174V30.8H8.174ZM8.174 53V54H9.174V53H8.174ZM0.0340002 53H-0.966V54H0.0340002V53ZM14.76 22.142L14.0529 21.4349L14.0422 21.4456L14.0318 21.4566L14.76 22.142ZM14.982 9.858L14.1876 10.4655L14.1986 10.4798L14.2101 10.4937L14.982 9.858ZM8.174 8.6V7.6H7.174V8.6H8.174ZM8.174 23.4H7.174V24.4H8.174V23.4ZM0.0340002 2.2H12.096V0.199997H0.0340002V2.2ZM12.096 2.2C16.1584 2.2 18.8989 3.15852 20.556 4.8581L21.988 3.4619C19.7971 1.21481 16.4203 0.199997 12.096 0.199997V2.2ZM20.5649 4.86711C22.2269 6.52916 23.158 9.20586 23.158 13.114H25.158C25.158 8.93147 24.1651 5.63883 21.9791 3.45289L20.5649 4.86711ZM23.158 13.114V16.296H25.158V13.114H23.158ZM23.158 16.296C23.158 18.8844 22.7291 20.9058 21.9394 22.4194C21.1613 23.9109 20.0108 24.9543 18.4564 25.5804L19.2036 27.4356C21.2012 26.631 22.7147 25.2571 23.7126 23.3446C24.6989 21.4542 25.158 19.0849 25.158 16.296H23.158ZM17.83 26.508V26.656H19.83V26.508H17.83ZM18.5427 27.6138C20.245 28.1245 21.3887 29.1354 22.0561 30.6789L23.8919 29.8851C22.9806 27.7779 21.3616 26.3715 19.1173 25.6982L18.5427 27.6138ZM22.0653 30.6995C22.8207 32.3435 23.232 34.6253 23.232 37.608H25.232C25.232 34.4734 24.8046 31.8711 23.8827 29.8645L22.0653 30.6995ZM23.232 37.608V46.71H25.232V37.608H23.232ZM23.232 46.71C23.232 48.2077 23.2817 49.4548 23.3855 50.4407L25.3745 50.2313C25.2809 49.3425 25.232 48.1723 25.232 46.71H23.232ZM23.3861 50.4464C23.4971 51.4451 23.7734 52.4325 24.2062 53.4061L26.0338 52.5939C25.6772 51.7915 25.4603 51.0029 25.3739 50.2256L23.3861 50.4464ZM25.12 52H16.832V54H25.12V52ZM17.775 52.6672C17.4977 51.8816 17.3192 51.16 17.2312 50.4998L15.2488 50.7642C15.3581 51.584 15.5743 52.4411 15.889 53.3328L17.775 52.6672ZM17.2312 50.4998C17.1424 49.8339 17.092 48.5635 17.092 46.636H15.092C15.092 48.5565 15.1402 49.9501 15.2488 50.7642L17.2312 50.4998ZM17.092 46.636V37.164H15.092V46.636H17.092ZM17.092 37.164C17.092 34.7498 16.7028 32.7848 15.6729 31.5619L14.1431 32.8501C14.6919 33.5019 15.092 34.8422 15.092 37.164H17.092ZM15.6929 31.5864C14.676 30.2983 12.9909 29.8 10.986 29.8V31.8C12.7304 31.8 13.66 32.239 14.1231 32.8256L15.6929 31.5864ZM10.986 29.8H8.174V31.8H10.986V29.8ZM7.174 30.8V53H9.174V30.8H7.174ZM8.174 52H0.0340002V54H8.174V52ZM1.034 53V1.2H-0.966V53H1.034ZM11.134 24.4C12.9213 24.4 14.4427 23.9382 15.4882 22.8274L14.0318 21.4566C13.4987 22.0231 12.6027 22.4 11.134 22.4V24.4ZM15.4671 22.8491C16.5851 21.7311 17.018 19.996 17.018 17.924H15.018C15.018 19.7987 14.6123 20.8755 14.0529 21.4349L15.4671 22.8491ZM17.018 17.924V13.928H15.018V17.924H17.018ZM17.018 13.928C17.018 11.9739 16.6663 10.3301 15.7539 9.22229L14.2101 10.4937C14.6791 11.0632 15.018 12.1327 15.018 13.928H17.018ZM15.7764 9.25055C14.8837 8.08329 13.4973 7.6 11.874 7.6V9.6C13.112 9.6 13.7976 9.95537 14.1876 10.4655L15.7764 9.25055ZM11.874 7.6H8.174V9.6H11.874V7.6ZM7.174 8.6V23.4H9.174V8.6H7.174ZM8.174 24.4H11.134V22.4H8.174V24.4ZM37.2797 1.2V0.199997H36.2797V1.2H37.2797ZM59.4797 1.2H60.4797V0.199997H59.4797V1.2ZM59.4797 8.6V9.6H60.4797V8.6H59.4797ZM45.4197 8.6V7.6H44.4197V8.6H45.4197ZM45.4197 22.29H44.4197V23.29H45.4197V22.29ZM56.5937 22.29H57.5937V21.29H56.5937V22.29ZM56.5937 29.69V30.69H57.5937V29.69H56.5937ZM45.4197 29.69V28.69H44.4197V29.69H45.4197ZM45.4197 45.6H44.4197V46.6H45.4197V45.6ZM59.4797 45.6H60.4797V44.6H59.4797V45.6ZM59.4797 53V54H60.4797V53H59.4797ZM37.2797 53H36.2797V54H37.2797V53ZM37.2797 2.2H59.4797V0.199997H37.2797V2.2ZM58.4797 1.2V8.6H60.4797V1.2H58.4797ZM59.4797 7.6H45.4197V9.6H59.4797V7.6ZM44.4197 8.6V22.29H46.4197V8.6H44.4197ZM45.4197 23.29H56.5937V21.29H45.4197V23.29ZM55.5937 22.29V29.69H57.5937V22.29H55.5937ZM56.5937 28.69H45.4197V30.69H56.5937V28.69ZM44.4197 29.69V45.6H46.4197V29.69H44.4197ZM45.4197 46.6H59.4797V44.6H45.4197V46.6ZM58.4797 45.6V53H60.4797V45.6H58.4797ZM59.4797 52H37.2797V54H59.4797V52ZM38.2797 53V1.2H36.2797V53H38.2797ZM74.0785 50.41L73.34 51.0843L73.3475 51.0923L74.0785 50.41ZM74.0785 3.864L74.8096 4.54636L74.817 4.53827L74.0785 3.864ZM92.1345 3.864L91.396 4.53831L91.4035 4.54632L92.1345 3.864ZM95.2425 17.924V18.924H96.2425V17.924H95.2425ZM87.5465 17.924H86.5465V18.924H87.5465V17.924ZM87.5465 31.17H88.5465V30.17H87.5465V31.17ZM83.4765 31.17H82.4765V32.17H83.4765V31.17ZM83.4765 23.77V22.77H82.4765V23.77H83.4765ZM95.2425 23.77H96.2425V22.77H95.2425V23.77ZM92.1345 50.41L92.8656 51.0924L92.873 51.0843L92.1345 50.41ZM83.1065 52.74C79.3495 52.74 76.64 51.6889 74.8096 49.7277L73.3475 51.0923C75.661 53.5711 78.9702 54.74 83.1065 54.74V52.74ZM74.817 49.7357C72.9664 47.7088 71.9705 44.7518 71.9705 40.716H69.9705C69.9705 45.0669 71.0467 48.5725 73.34 51.0843L74.817 49.7357ZM71.9705 40.716V13.484H69.9705V40.716H71.9705ZM71.9705 13.484C71.9705 9.44656 72.967 6.52048 74.8096 4.54632L73.3475 3.18168C71.046 5.64752 69.9705 9.13477 69.9705 13.484H71.9705ZM74.817 4.53827C76.649 2.53177 79.356 1.46 83.1065 1.46V-0.540003C78.9637 -0.540003 75.652 0.657561 73.34 3.18973L74.817 4.53827ZM83.1065 1.46C86.857 1.46 89.564 2.53177 91.396 4.53827L92.873 3.18973C90.561 0.657561 87.2493 -0.540003 83.1065 -0.540003V1.46ZM91.4035 4.54632C93.246 6.52048 94.2425 9.44656 94.2425 13.484H96.2425C96.2425 9.13477 95.167 5.64752 92.8656 3.18168L91.4035 4.54632ZM94.2425 13.484V17.924H96.2425V13.484H94.2425ZM95.2425 16.924H87.5465V18.924H95.2425V16.924ZM88.5465 17.924V12.966H86.5465V17.924H88.5465ZM88.5465 12.966C88.5465 11.1514 88.1757 9.60446 87.263 8.49962C86.3201 7.35819 84.9443 6.86 83.3285 6.86V8.86C84.5247 8.86 85.258 9.21281 85.7211 9.77338C86.2144 10.3705 86.5465 11.3766 86.5465 12.966H88.5465ZM83.3285 6.86C81.7127 6.86 80.337 7.35819 79.3941 8.49962C78.4814 9.60446 78.1105 11.1514 78.1105 12.966H80.1105C80.1105 11.3766 80.4427 10.3705 80.936 9.77338C81.3991 9.21281 82.1323 8.86 83.3285 8.86V6.86ZM78.1105 12.966V41.308H80.1105V12.966H78.1105ZM78.1105 41.308C78.1105 43.1007 78.4825 44.6315 79.3987 45.7244C80.3431 46.8511 81.7175 47.34 83.3285 47.34V45.34C82.1275 45.34 81.3929 44.9902 80.9314 44.4396C80.4415 43.8552 80.1105 42.87 80.1105 41.308H78.1105ZM83.3285 47.34C84.9395 47.34 86.3139 46.8511 87.2584 45.7244C88.1745 44.6315 88.5465 43.1007 88.5465 41.308H86.5465C86.5465 42.87 86.2155 43.8552 85.7256 44.4396C85.2641 44.9902 84.5295 45.34 83.3285 45.34V47.34ZM88.5465 41.308V31.17H86.5465V41.308H88.5465ZM87.5465 30.17H83.4765V32.17H87.5465V30.17ZM84.4765 31.17V23.77H82.4765V31.17H84.4765ZM83.4765 24.77H95.2425V22.77H83.4765V24.77ZM94.2425 23.77V40.716H96.2425V23.77H94.2425ZM94.2425 40.716C94.2425 44.7518 93.2467 47.7088 91.396 49.7357L92.873 51.0843C95.1664 48.5725 96.2425 45.0669 96.2425 40.716H94.2425ZM91.4035 49.7277C89.573 51.6889 86.8635 52.74 83.1065 52.74V54.74C87.2428 54.74 90.552 53.5711 92.8656 51.0923L91.4035 49.7277ZM107.869 1.2V0.199997H106.869V1.2H107.869ZM116.009 1.2H117.009V0.199997H116.009V1.2ZM116.009 53V54H117.009V53H116.009ZM107.869 53H106.869V54H107.869V53ZM107.869 2.2H116.009V0.199997H107.869V2.2ZM115.009 1.2V53H117.009V1.2H115.009ZM116.009 52H107.869V54H116.009V52ZM108.869 53V1.2H106.869V53H108.869ZM131.133 50.41L130.387 51.0754L130.394 51.0835L131.133 50.41ZM128.099 37.756V36.756H127.099V37.756H128.099ZM135.795 37.756H136.795V36.756H135.795V37.756ZM143.121 45.156L142.371 44.4944L142.369 44.4975L143.121 45.156ZM142.751 35.462L141.889 35.9691L141.896 35.9803L142.751 35.462ZM137.275 29.468L136.613 30.2179L136.619 30.2223L137.275 29.468ZM130.245 21.476L129.369 21.9586L129.374 21.9663L130.245 21.476ZM131.355 3.864L132.086 4.54636L132.094 4.53827L131.355 3.864ZM149.189 3.864L148.434 4.52018L148.442 4.52892L148.45 4.53749L149.189 3.864ZM152.223 15.63V16.63H153.223V15.63H152.223ZM144.527 15.63H143.527V16.63H144.527V15.63ZM143.491 9.118L142.719 9.7537L142.729 9.76525L142.739 9.7765L143.491 9.118ZM137.867 18.072L137.012 18.5903L137.018 18.5996L137.023 18.6089L137.867 18.072ZM143.417 23.992L142.761 24.7463L142.761 24.7466L143.417 23.992ZM150.447 32.058L149.564 32.5267L150.447 32.058ZM149.189 50.336L148.459 49.6531L148.451 49.6617L149.189 50.336ZM140.087 52.74C136.329 52.74 133.651 51.6884 131.872 49.7365L130.394 51.0835C132.661 53.5716 135.952 54.74 140.087 54.74V52.74ZM131.88 49.7446C130.073 47.7179 129.099 44.7574 129.099 40.716H127.099C127.099 45.0613 128.148 48.5634 130.387 51.0754L131.88 49.7446ZM129.099 40.716V37.756H127.099V40.716H129.099ZM128.099 38.756H135.795V36.756H128.099V38.756ZM134.795 37.756V41.308H136.795V37.756H134.795ZM134.795 41.308C134.795 43.1007 135.167 44.6315 136.083 45.7244C137.028 46.8511 138.402 47.34 140.013 47.34V45.34C138.812 45.34 138.077 44.9902 137.616 44.4396C137.126 43.8552 136.795 42.87 136.795 41.308H134.795ZM140.013 47.34C141.586 47.34 142.937 46.8845 143.874 45.8145L142.369 44.4975C141.923 45.0062 141.203 45.34 140.013 45.34V47.34ZM143.871 45.8176C144.847 44.7112 145.231 43.0847 145.231 41.16H143.231C143.231 42.886 142.875 43.9235 142.371 44.4944L143.871 45.8176ZM145.231 41.16C145.231 38.8328 144.7 36.749 143.606 34.9437L141.896 35.9803C142.775 37.431 143.231 39.1459 143.231 41.16H145.231ZM143.613 34.955C142.544 33.1378 140.622 31.0554 137.932 28.7137L136.619 30.2223C139.256 32.518 140.985 34.4316 141.889 35.969L143.613 34.955ZM137.937 28.7182C134.619 25.7908 132.37 23.2133 131.117 20.9857L129.374 21.9663C130.785 24.4747 133.222 27.2252 136.613 30.2178L137.937 28.7182ZM131.121 20.9934C129.878 18.737 129.247 16.1922 129.247 13.336H127.247C127.247 16.4985 127.949 19.3803 129.369 21.9586L131.121 20.9934ZM129.247 13.336C129.247 9.40476 130.24 6.52452 132.086 4.54632L130.624 3.18168C128.326 5.64348 127.247 9.0779 127.247 13.336H129.247ZM132.094 4.53827C133.926 2.53177 136.633 1.46 140.383 1.46V-0.540003C136.24 -0.540003 132.929 0.657561 130.617 3.18973L132.094 4.53827ZM140.383 1.46C144.082 1.46 146.704 2.52991 148.434 4.52018L149.944 3.20782C147.728 0.659422 144.478 -0.540003 140.383 -0.540003V1.46ZM148.45 4.53749C150.248 6.51136 151.223 9.44089 151.223 13.484H153.223C153.223 9.14044 152.175 5.65664 149.928 3.19051L148.45 4.53749ZM151.223 13.484V15.63H153.223V13.484H151.223ZM152.223 14.63H144.527V16.63H152.223V14.63ZM145.527 15.63V12.966H143.527V15.63H145.527ZM145.527 12.966C145.527 11.1025 145.173 9.52106 144.244 8.45949L142.739 9.7765C143.191 10.2936 143.527 11.2775 143.527 12.966H145.527ZM144.263 8.48229C143.34 7.36125 142.014 6.86 140.457 6.86V8.86C141.564 8.86 142.261 9.19741 142.719 9.7537L144.263 8.48229ZM140.457 6.86C138.889 6.86 137.549 7.34726 136.632 8.465C135.745 9.54497 135.387 11.0539 135.387 12.818H137.387C137.387 11.2768 137.707 10.3067 138.178 9.73399C138.617 9.19908 139.312 8.86 140.457 8.86V6.86ZM135.387 12.818C135.387 14.8784 135.932 16.8086 137.012 18.5903L138.722 17.5537C137.829 16.0794 137.387 14.507 137.387 12.818H135.387ZM137.023 18.6089C138.137 20.3592 140.074 22.4076 142.761 24.7463L144.074 23.2377C141.433 20.9391 139.669 19.0408 138.711 17.5351L137.023 18.6089ZM142.761 24.7466C146.124 27.6714 148.364 30.2656 149.564 32.5267L151.33 31.5893C149.965 29.0158 147.518 26.2326 144.073 23.2374L142.761 24.7466ZM149.564 32.5267C150.757 34.7746 151.371 37.4445 151.371 40.568H153.371C153.371 37.1795 152.703 34.176 151.33 31.5893L149.564 32.5267ZM151.371 40.568C151.371 44.6511 150.352 47.6279 148.459 49.6531L149.92 51.0189C152.269 48.5055 153.371 44.9702 153.371 40.568H151.371ZM148.451 49.6617C146.621 51.6657 143.891 52.74 140.087 52.74V54.74C144.275 54.74 147.613 53.545 149.928 51.0103L148.451 49.6617ZM170.802 8.6H171.802V7.6H170.802V8.6ZM162.292 8.6H161.292V9.6H162.292V8.6ZM162.292 1.2V0.199997H161.292V1.2H162.292ZM187.452 1.2H188.452V0.199997H187.452V1.2ZM187.452 8.6V9.6H188.452V8.6H187.452ZM178.942 8.6V7.6H177.942V8.6H178.942ZM178.942 53V54H179.942V53H178.942ZM170.802 53H169.802V54H170.802V53ZM170.802 7.6H162.292V9.6H170.802V7.6ZM163.292 8.6V1.2H161.292V8.6H163.292ZM162.292 2.2H187.452V0.199997H162.292V2.2ZM186.452 1.2V8.6H188.452V1.2H186.452ZM187.452 7.6H178.942V9.6H187.452V7.6ZM177.942 8.6V53H179.942V8.6H177.942ZM178.942 52H170.802V54H178.942V52ZM171.802 53V8.6H169.802V53H171.802ZM198.793 1.2V0.199997H197.793V1.2H198.793ZM220.993 1.2H221.993V0.199997H220.993V1.2ZM220.993 8.6V9.6H221.993V8.6H220.993ZM206.933 8.6V7.6H205.933V8.6H206.933ZM206.933 22.29H205.933V23.29H206.933V22.29ZM218.107 22.29H219.107V21.29H218.107V22.29ZM218.107 29.69V30.69H219.107V29.69H218.107ZM206.933 29.69V28.69H205.933V29.69H206.933ZM206.933 45.6H205.933V46.6H206.933V45.6ZM220.993 45.6H221.993V44.6H220.993V45.6ZM220.993 53V54H221.993V53H220.993ZM198.793 53H197.793V54H198.793V53ZM198.793 2.2H220.993V0.199997H198.793V2.2ZM219.993 1.2V8.6H221.993V1.2H219.993ZM220.993 7.6H206.933V9.6H220.993V7.6ZM205.933 8.6V22.29H207.933V8.6H205.933ZM206.933 23.29H218.107V21.29H206.933V23.29ZM217.107 22.29V29.69H219.107V22.29H217.107ZM218.107 28.69H206.933V30.69H218.107V28.69ZM205.933 29.69V45.6H207.933V29.69H205.933ZM206.933 46.6H220.993V44.6H206.933V46.6ZM219.993 45.6V53H221.993V45.6H219.993ZM220.993 52H198.793V54H220.993V52ZM199.793 53V1.2H197.793V53H199.793ZM233.076 1.2V0.199997H232.076V1.2H233.076ZM254.314 4.16L253.598 4.85815L253.607 4.86711L254.314 4.16ZM251.872 26.508L251.499 25.5804L250.872 25.8327V26.508H251.872ZM251.872 26.656H250.872V27.4L251.585 27.6138L251.872 26.656ZM256.016 30.282L255.098 30.6789L255.103 30.6893L255.108 30.6995L256.016 30.282ZM257.422 50.336L256.428 50.4407L256.428 50.4464L257.422 50.336ZM258.162 53V54H259.701L259.076 52.5939L258.162 53ZM249.874 53L248.931 53.3328L249.167 54H249.874V53ZM247.95 32.206L247.165 32.8256L247.175 32.838L247.185 32.8501L247.95 32.206ZM241.216 30.8V29.8H240.216V30.8H241.216ZM241.216 53V54H242.216V53H241.216ZM233.076 53H232.076V54H233.076V53ZM247.802 22.142L247.095 21.4349L247.084 21.4456L247.074 21.4566L247.802 22.142ZM248.024 9.858L247.23 10.4655L247.241 10.4798L247.252 10.4937L248.024 9.858ZM241.216 8.6V7.6H240.216V8.6H241.216ZM241.216 23.4H240.216V24.4H241.216V23.4ZM233.076 2.2H245.138V0.199997H233.076V2.2ZM245.138 2.2C249.201 2.2 251.941 3.15852 253.598 4.8581L255.03 3.4619C252.839 1.21481 249.462 0.199997 245.138 0.199997V2.2ZM253.607 4.86711C255.269 6.52916 256.2 9.20586 256.2 13.114H258.2C258.2 8.93147 257.207 5.63883 255.021 3.45289L253.607 4.86711ZM256.2 13.114V16.296H258.2V13.114H256.2ZM256.2 16.296C256.2 18.8844 255.771 20.9058 254.982 22.4194C254.203 23.9109 253.053 24.9543 251.499 25.5804L252.246 27.4356C254.243 26.631 255.757 25.2571 256.755 23.3446C257.741 21.4542 258.2 19.0849 258.2 16.296H256.2ZM250.872 26.508V26.656H252.872V26.508H250.872ZM251.585 27.6138C253.287 28.1245 254.431 29.1354 255.098 30.6789L256.934 29.8851C256.023 27.7779 254.404 26.3715 252.16 25.6982L251.585 27.6138ZM255.108 30.6995C255.863 32.3435 256.274 34.6253 256.274 37.608H258.274C258.274 34.4734 257.847 31.8711 256.925 29.8645L255.108 30.6995ZM256.274 37.608V46.71H258.274V37.608H256.274ZM256.274 46.71C256.274 48.2077 256.324 49.4548 256.428 50.4407L258.417 50.2313C258.323 49.3425 258.274 48.1723 258.274 46.71H256.274ZM256.428 50.4464C256.539 51.4451 256.816 52.4325 257.248 53.4061L259.076 52.5939C258.719 51.7915 258.502 51.0029 258.416 50.2256L256.428 50.4464ZM258.162 52H249.874V54H258.162V52ZM250.817 52.6672C250.54 51.8816 250.361 51.16 250.273 50.4998L248.291 50.7642C248.4 51.584 248.616 52.4411 248.931 53.3328L250.817 52.6672ZM250.273 50.4998C250.185 49.8339 250.134 48.5635 250.134 46.636H248.134C248.134 48.5565 248.182 49.9501 248.291 50.7642L250.273 50.4998ZM250.134 46.636V37.164H248.134V46.636H250.134ZM250.134 37.164C250.134 34.7498 249.745 32.7848 248.715 31.5619L247.185 32.8501C247.734 33.5019 248.134 34.8422 248.134 37.164H250.134ZM248.735 31.5864C247.718 30.2983 246.033 29.8 244.028 29.8V31.8C245.773 31.8 246.702 32.239 247.165 32.8256L248.735 31.5864ZM244.028 29.8H241.216V31.8H244.028V29.8ZM240.216 30.8V53H242.216V30.8H240.216ZM241.216 52H233.076V54H241.216V52ZM234.076 53V1.2H232.076V53H234.076ZM244.176 24.4C245.964 24.4 247.485 23.9382 248.53 22.8274L247.074 21.4566C246.541 22.0231 245.645 22.4 244.176 22.4V24.4ZM248.509 22.8491C249.627 21.7311 250.06 19.996 250.06 17.924H248.06C248.06 19.7987 247.654 20.8755 247.095 21.4349L248.509 22.8491ZM250.06 17.924V13.928H248.06V17.924H250.06ZM250.06 13.928C250.06 11.9739 249.708 10.3301 248.796 9.22229L247.252 10.4937C247.721 11.0632 248.06 12.1327 248.06 13.928H250.06ZM248.819 9.25055C247.926 8.08329 246.54 7.6 244.916 7.6V9.6C246.154 9.6 246.84 9.95537 247.23 10.4655L248.819 9.25055ZM244.916 7.6H241.216V9.6H244.916V7.6ZM240.216 8.6V23.4H242.216V8.6H240.216ZM241.216 24.4H244.176V22.4H241.216V24.4ZM297.047 30.948H298.047V30.7869L297.997 30.6339L297.047 30.948ZM287.205 1.2V0.199997H285.821L286.256 1.5141L287.205 1.2ZM295.863 1.2L296.823 0.919853L296.613 0.199997H295.863V1.2ZM301.413 20.218L300.453 20.4981L300.664 21.218H301.413V20.218ZM301.561 20.218V21.218H302.311L302.521 20.4981L301.561 20.218ZM307.111 1.2V0.199997H306.362L306.151 0.919853L307.111 1.2ZM315.029 1.2L315.979 1.5141L316.414 0.199997H315.029V1.2ZM305.187 30.948L304.238 30.6339L304.187 30.7869V30.948H305.187ZM305.187 53V54H306.187V53H305.187ZM297.047 53H296.047V54H297.047V53ZM297.997 30.6339L288.155 0.885895L286.256 1.5141L296.098 31.2621L297.997 30.6339ZM287.205 2.2H295.863V0.199997H287.205V2.2ZM294.904 1.48014L300.453 20.4981L302.373 19.9379L296.823 0.919853L294.904 1.48014ZM301.413 21.218H301.561V19.218H301.413V21.218ZM302.521 20.4981L308.071 1.48014L306.151 0.919853L300.602 19.9379L302.521 20.4981ZM307.111 2.2H315.029V0.199997H307.111V2.2ZM314.08 0.885895L304.238 30.6339L306.137 31.2621L315.979 1.5141L314.08 0.885895ZM304.187 30.948V53H306.187V30.948H304.187ZM305.187 52H297.047V54H305.187V52ZM298.047 53V30.948H296.047V53H298.047ZM327.386 50.336L328.116 49.6531L327.386 50.336ZM327.386 3.864L328.116 4.54688L327.386 3.864ZM345.738 3.864L345.007 4.54688L345.738 3.864ZM345.738 50.336L345.007 49.6531L345.738 50.336ZM336.562 52.74C332.759 52.74 329.998 51.6661 328.116 49.6531L326.655 51.0189C329.016 53.5445 332.373 54.74 336.562 54.74V52.74ZM328.116 49.6531C326.219 47.6238 325.204 44.693 325.204 40.716H323.204C323.204 45.027 324.309 48.5095 326.655 51.0189L328.116 49.6531ZM325.204 40.716V13.484H323.204V40.716H325.204ZM325.204 13.484C325.204 9.50696 326.219 6.57617 328.116 4.54688L326.655 3.18111C324.309 5.6905 323.204 9.17303 323.204 13.484H325.204ZM328.116 4.54688C329.998 2.53388 332.759 1.46 336.562 1.46V-0.540003C332.373 -0.540003 329.016 0.655449 326.655 3.18111L328.116 4.54688ZM336.562 1.46C340.365 1.46 343.125 2.53388 345.007 4.54688L346.468 3.18111C344.107 0.655449 340.751 -0.540003 336.562 -0.540003V1.46ZM345.007 4.54688C346.904 6.57617 347.92 9.50696 347.92 13.484H349.92C349.92 9.17303 348.814 5.6905 346.468 3.18111L345.007 4.54688ZM347.92 13.484V40.716H349.92V13.484H347.92ZM347.92 40.716C347.92 44.693 346.904 47.6238 345.007 49.6531L346.468 51.0189C348.814 48.5095 349.92 45.027 349.92 40.716H347.92ZM345.007 49.6531C343.125 51.6661 340.365 52.74 336.562 52.74V54.74C340.751 54.74 344.107 53.5445 346.468 51.0189L345.007 49.6531ZM336.562 47.34C338.178 47.34 339.553 46.8418 340.496 45.7004C341.409 44.5955 341.78 43.0486 341.78 41.234H339.78C339.78 42.8234 339.448 43.8295 338.954 44.4266C338.491 44.9872 337.758 45.34 336.562 45.34V47.34ZM341.78 41.234V12.966H339.78V41.234H341.78ZM341.78 12.966C341.78 11.1514 341.409 9.60446 340.496 8.49962C339.553 7.35819 338.178 6.86 336.562 6.86V8.86C337.758 8.86 338.491 9.21281 338.954 9.77338C339.448 10.3705 339.78 11.3766 339.78 12.966H341.78ZM336.562 6.86C334.946 6.86 333.57 7.35819 332.627 8.49962C331.715 9.60446 331.344 11.1514 331.344 12.966H333.344C333.344 11.3766 333.676 10.3705 334.169 9.77338C334.632 9.21281 335.366 8.86 336.562 8.86V6.86ZM331.344 12.966V41.234H333.344V12.966H331.344ZM331.344 41.234C331.344 43.0486 331.715 44.5955 332.627 45.7004C333.57 46.8418 334.946 47.34 336.562 47.34V45.34C335.366 45.34 334.632 44.9872 334.169 44.4266C333.676 43.8295 333.344 42.8234 333.344 41.234H331.344ZM364.637 50.41L363.898 51.0843L363.906 51.0923L364.637 50.41ZM361.529 1.2V0.199997H360.529V1.2H361.529ZM369.669 1.2H370.669V0.199997H369.669V1.2ZM370.705 45.156L369.952 45.8145L369.963 45.8274L369.975 45.8399L370.705 45.156ZM376.847 45.156L376.117 44.4721L376.105 44.4846L376.094 44.4975L376.847 45.156ZM377.957 1.2V0.199997H376.957V1.2H377.957ZM385.801 1.2H386.801V0.199997H385.801V1.2ZM382.693 50.41L383.424 51.0924L383.431 51.0843L382.693 50.41ZM373.665 52.74C369.908 52.74 367.198 51.6889 365.368 49.7277L363.906 51.0923C366.219 53.5711 369.528 54.74 373.665 54.74V52.74ZM365.375 49.7357C363.524 47.7088 362.529 44.7518 362.529 40.716H360.529C360.529 45.0669 361.605 48.5725 363.898 51.0843L365.375 49.7357ZM362.529 40.716V1.2H360.529V40.716H362.529ZM361.529 2.2H369.669V0.199997H361.529V2.2ZM368.669 1.2V41.308H370.669V1.2H368.669ZM368.669 41.308C368.669 43.1715 369.023 44.7529 369.952 45.8145L371.457 44.4975C371.005 43.9804 370.669 42.9965 370.669 41.308H368.669ZM369.975 45.8399C370.946 46.876 372.273 47.34 373.813 47.34V45.34C372.689 45.34 371.943 45.0147 371.434 44.4721L369.975 45.8399ZM373.813 47.34C375.349 47.34 376.67 46.8767 377.599 45.8145L376.094 44.4975C375.642 45.014 374.94 45.34 373.813 45.34V47.34ZM377.576 45.8399C378.572 44.7774 378.957 43.1844 378.957 41.308H376.957C376.957 42.9836 376.601 43.9559 376.117 44.4721L377.576 45.8399ZM378.957 41.308V1.2H376.957V41.308H378.957ZM377.957 2.2H385.801V0.199997H377.957V2.2ZM384.801 1.2V40.716H386.801V1.2H384.801ZM384.801 40.716C384.801 44.7518 383.805 47.7088 381.954 49.7357L383.431 51.0843C385.724 48.5725 386.801 45.0669 386.801 40.716H384.801ZM381.962 49.7277C380.131 51.6889 377.422 52.74 373.665 52.74V54.74C377.801 54.74 381.11 53.5711 383.424 51.0923L381.962 49.7277ZM398.998 1.2V0.199997H397.998V1.2H398.998ZM420.236 4.16L419.52 4.85815L419.529 4.86711L420.236 4.16ZM417.794 26.508L417.42 25.5804L416.794 25.8327V26.508H417.794ZM417.794 26.656H416.794V27.4L417.507 27.6138L417.794 26.656ZM421.938 30.282L421.02 30.6789L421.025 30.6893L421.029 30.6995L421.938 30.282ZM423.344 50.336L422.35 50.4407L422.35 50.4464L423.344 50.336ZM424.084 53V54H425.623L424.998 52.5939L424.084 53ZM415.796 53L414.853 53.3328L415.089 54H415.796V53ZM413.872 32.206L413.087 32.8256L413.097 32.838L413.107 32.8501L413.872 32.206ZM407.138 30.8V29.8H406.138V30.8H407.138ZM407.138 53V54H408.138V53H407.138ZM398.998 53H397.998V54H398.998V53ZM413.724 22.142L413.017 21.4349L413.006 21.4456L412.996 21.4566L413.724 22.142ZM413.946 9.858L413.152 10.4655L413.163 10.4798L413.174 10.4937L413.946 9.858ZM407.138 8.6V7.6H406.138V8.6H407.138ZM407.138 23.4H406.138V24.4H407.138V23.4ZM398.998 2.2H411.06V0.199997H398.998V2.2ZM411.06 2.2C415.122 2.2 417.863 3.15852 419.52 4.8581L420.952 3.4619C418.761 1.21481 415.384 0.199997 411.06 0.199997V2.2ZM419.529 4.86711C421.191 6.52916 422.122 9.20586 422.122 13.114H424.122C424.122 8.93147 423.129 5.63883 420.943 3.45289L419.529 4.86711ZM422.122 13.114V16.296H424.122V13.114H422.122ZM422.122 16.296C422.122 18.8844 421.693 20.9058 420.903 22.4194C420.125 23.9109 418.975 24.9543 417.42 25.5804L418.168 27.4356C420.165 26.631 421.679 25.2571 422.677 23.3446C423.663 21.4542 424.122 19.0849 424.122 16.296H422.122ZM416.794 26.508V26.656H418.794V26.508H416.794ZM417.507 27.6138C419.209 28.1245 420.353 29.1354 421.02 30.6789L422.856 29.8851C421.945 27.7779 420.326 26.3715 418.081 25.6982L417.507 27.6138ZM421.029 30.6995C421.785 32.3435 422.196 34.6253 422.196 37.608H424.196C424.196 34.4734 423.769 31.8711 422.847 29.8645L421.029 30.6995ZM422.196 37.608V46.71H424.196V37.608H422.196ZM422.196 46.71C422.196 48.2077 422.246 49.4548 422.35 50.4407L424.339 50.2313C424.245 49.3425 424.196 48.1723 424.196 46.71H422.196ZM422.35 50.4464C422.461 51.4451 422.737 52.4325 423.17 53.4061L424.998 52.5939C424.641 51.7915 424.424 51.0029 424.338 50.2256L422.35 50.4464ZM424.084 52H415.796V54H424.084V52ZM416.739 52.6672C416.462 51.8816 416.283 51.16 416.195 50.4998L414.213 50.7642C414.322 51.584 414.538 52.4411 414.853 53.3328L416.739 52.6672ZM416.195 50.4998C416.106 49.8339 416.056 48.5635 416.056 46.636H414.056C414.056 48.5565 414.104 49.9501 414.213 50.7642L416.195 50.4998ZM416.056 46.636V37.164H414.056V46.636H416.056ZM416.056 37.164C416.056 34.7498 415.667 32.7848 414.637 31.5619L413.107 32.8501C413.656 33.5019 414.056 34.8422 414.056 37.164H416.056ZM414.657 31.5864C413.64 30.2983 411.955 29.8 409.95 29.8V31.8C411.694 31.8 412.624 32.239 413.087 32.8256L414.657 31.5864ZM409.95 29.8H407.138V31.8H409.95V29.8ZM406.138 30.8V53H408.138V30.8H406.138ZM407.138 52H398.998V54H407.138V52ZM399.998 53V1.2H397.998V53H399.998ZM410.098 24.4C411.885 24.4 413.407 23.9382 414.452 22.8274L412.996 21.4566C412.463 22.0231 411.567 22.4 410.098 22.4V24.4ZM414.431 22.8491C415.549 21.7311 415.982 19.996 415.982 17.924H413.982C413.982 19.7987 413.576 20.8755 413.017 21.4349L414.431 22.8491ZM415.982 17.924V13.928H413.982V17.924H415.982ZM415.982 13.928C415.982 11.9739 415.63 10.3301 414.718 9.22229L413.174 10.4937C413.643 11.0632 413.982 12.1327 413.982 13.928H415.982ZM414.74 9.25055C413.848 8.08329 412.461 7.6 410.838 7.6V9.6C412.076 9.6 412.762 9.95537 413.152 10.4655L414.74 9.25055ZM410.838 7.6H407.138V9.6H410.838V7.6ZM406.138 8.6V23.4H408.138V8.6H406.138ZM407.138 24.4H410.098V22.4H407.138V24.4ZM455.495 1.2V0.199997H454.495V1.2H455.495ZM463.635 1.2H464.635V0.199997H463.635V1.2ZM463.635 53V54H464.635V53H463.635ZM455.495 53H454.495V54H455.495V53ZM455.495 2.2H463.635V0.199997H455.495V2.2ZM462.635 1.2V53H464.635V1.2H462.635ZM463.635 52H455.495V54H463.635V52ZM456.495 53V1.2H454.495V53H456.495ZM477.132 1.2V0.199997H476.132V1.2H477.132ZM487.344 1.2L488.313 0.952567L488.12 0.199997H487.344V1.2ZM495.262 32.206L494.293 32.4534L494.485 33.206H495.262V32.206ZM495.41 32.206V33.206H496.41V32.206H495.41ZM495.41 1.2V0.199997H494.41V1.2H495.41ZM502.662 1.2H503.662V0.199997H502.662V1.2ZM502.662 53V54H503.662V53H502.662ZM494.3 53L493.331 53.2501L493.525 54H494.3V53ZM484.532 15.186L485.5 14.9359L485.306 14.186H484.532V15.186ZM484.384 15.186V14.186H483.384V15.186H484.384ZM484.384 53V54H485.384V53H484.384ZM477.132 53H476.132V54H477.132V53ZM477.132 2.2H487.344V0.199997H477.132V2.2ZM486.375 1.44743L494.293 32.4534L496.231 31.9586L488.313 0.952567L486.375 1.44743ZM495.262 33.206H495.41V31.206H495.262V33.206ZM496.41 32.206V1.2H494.41V32.206H496.41ZM495.41 2.2H502.662V0.199997H495.41V2.2ZM501.662 1.2V53H503.662V1.2H501.662ZM502.662 52H494.3V54H502.662V52ZM495.268 52.7499L485.5 14.9359L483.563 15.4361L493.331 53.2501L495.268 52.7499ZM484.532 14.186H484.384V16.186H484.532V14.186ZM483.384 15.186V53H485.384V15.186H483.384ZM484.384 52H477.132V54H484.384V52ZM478.132 53V1.2H476.132V53H478.132ZM522.476 8.6H523.476V7.6H522.476V8.6ZM513.966 8.6H512.966V9.6H513.966V8.6ZM513.966 1.2V0.199997H512.966V1.2H513.966ZM539.126 1.2H540.126V0.199997H539.126V1.2ZM539.126 8.6V9.6H540.126V8.6H539.126ZM530.616 8.6V7.6H529.616V8.6H530.616ZM530.616 53V54H531.616V53H530.616ZM522.476 53H521.476V54H522.476V53ZM522.476 7.6H513.966V9.6H522.476V7.6ZM514.966 8.6V1.2H512.966V8.6H514.966ZM513.966 2.2H539.126V0.199997H513.966V2.2ZM538.126 1.2V8.6H540.126V1.2H538.126ZM539.126 7.6H530.616V9.6H539.126V7.6ZM529.616 8.6V53H531.616V8.6H529.616ZM530.616 52H522.476V54H530.616V52ZM523.476 53V8.6H521.476V53H523.476ZM550.467 1.2V0.199997H549.467V1.2H550.467ZM572.667 1.2H573.667V0.199997H572.667V1.2ZM572.667 8.6V9.6H573.667V8.6H572.667ZM558.607 8.6V7.6H557.607V8.6H558.607ZM558.607 22.29H557.607V23.29H558.607V22.29ZM569.781 22.29H570.781V21.29H569.781V22.29ZM569.781 29.69V30.69H570.781V29.69H569.781ZM558.607 29.69V28.69H557.607V29.69H558.607ZM558.607 45.6H557.607V46.6H558.607V45.6ZM572.667 45.6H573.667V44.6H572.667V45.6ZM572.667 53V54H573.667V53H572.667ZM550.467 53H549.467V54H550.467V53ZM550.467 2.2H572.667V0.199997H550.467V2.2ZM571.667 1.2V8.6H573.667V1.2H571.667ZM572.667 7.6H558.607V9.6H572.667V7.6ZM557.607 8.6V22.29H559.607V8.6H557.607ZM558.607 23.29H569.781V21.29H558.607V23.29ZM568.781 22.29V29.69H570.781V22.29H568.781ZM569.781 28.69H558.607V30.69H569.781V28.69ZM557.607 29.69V45.6H559.607V29.69H557.607ZM558.607 46.6H572.667V44.6H558.607V46.6ZM571.667 45.6V53H573.667V45.6H571.667ZM572.667 52H550.467V54H572.667V52ZM551.467 53V1.2H549.467V53H551.467ZM584.75 1.2V0.199997H583.75V1.2H584.75ZM605.988 4.16L605.272 4.85815L605.281 4.86711L605.988 4.16ZM603.546 26.508L603.172 25.5804L602.546 25.8327V26.508H603.546ZM603.546 26.656H602.546V27.4L603.258 27.6138L603.546 26.656ZM607.69 30.282L606.772 30.6789L606.776 30.6893L606.781 30.6995L607.69 30.282ZM609.096 50.336L608.101 50.4407L608.102 50.4464L609.096 50.336ZM609.836 53V54H611.374L610.749 52.5939L609.836 53ZM601.548 53L600.605 53.3328L600.84 54H601.548V53ZM599.624 32.206L598.839 32.8256L598.849 32.838L598.859 32.8501L599.624 32.206ZM592.89 30.8V29.8H591.89V30.8H592.89ZM592.89 53V54H593.89V53H592.89ZM584.75 53H583.75V54H584.75V53ZM599.476 22.142L598.769 21.4349L598.758 21.4456L598.747 21.4566L599.476 22.142ZM599.698 9.858L598.903 10.4655L598.914 10.4798L598.926 10.4937L599.698 9.858ZM592.89 8.6V7.6H591.89V8.6H592.89ZM592.89 23.4H591.89V24.4H592.89V23.4ZM584.75 2.2H596.812V0.199997H584.75V2.2ZM596.812 2.2C600.874 2.2 603.615 3.15852 605.272 4.8581L606.704 3.4619C604.513 1.21481 601.136 0.199997 596.812 0.199997V2.2ZM605.281 4.86711C606.943 6.52916 607.874 9.20586 607.874 13.114H609.874C609.874 8.93147 608.881 5.63883 606.695 3.45289L605.281 4.86711ZM607.874 13.114V16.296H609.874V13.114H607.874ZM607.874 16.296C607.874 18.8844 607.445 20.9058 606.655 22.4194C605.877 23.9109 604.727 24.9543 603.172 25.5804L603.919 27.4356C605.917 26.631 607.43 25.2571 608.428 23.3446C609.415 21.4542 609.874 19.0849 609.874 16.296H607.874ZM602.546 26.508V26.656H604.546V26.508H602.546ZM603.258 27.6138C604.961 28.1245 606.104 29.1354 606.772 30.6789L608.607 29.8851C607.696 27.7779 606.077 26.3715 603.833 25.6982L603.258 27.6138ZM606.781 30.6995C607.536 32.3435 607.948 34.6253 607.948 37.608H609.948C609.948 34.4734 609.52 31.8711 608.598 29.8645L606.781 30.6995ZM607.948 37.608V46.71H609.948V37.608H607.948ZM607.948 46.71C607.948 48.2077 607.997 49.4548 608.101 50.4407L610.09 50.2313C609.997 49.3425 609.948 48.1723 609.948 46.71H607.948ZM608.102 50.4464C608.213 51.4451 608.489 52.4325 608.922 53.4061L610.749 52.5939C610.393 51.7915 610.176 51.0029 610.09 50.2256L608.102 50.4464ZM609.836 52H601.548V54H609.836V52ZM602.491 52.6672C602.213 51.8816 602.035 51.16 601.947 50.4998L599.964 50.7642C600.074 51.584 600.29 52.4411 600.605 53.3328L602.491 52.6672ZM601.947 50.4998C601.858 49.8339 601.808 48.5635 601.808 46.636H599.808C599.808 48.5565 599.856 49.9501 599.964 50.7642L601.947 50.4998ZM601.808 46.636V37.164H599.808V46.636H601.808ZM601.808 37.164C601.808 34.7498 601.418 32.7848 600.389 31.5619L598.859 32.8501C599.408 33.5019 599.808 34.8422 599.808 37.164H601.808ZM600.409 31.5864C599.392 30.2983 597.707 29.8 595.702 29.8V31.8C597.446 31.8 598.376 32.239 598.839 32.8256L600.409 31.5864ZM595.702 29.8H592.89V31.8H595.702V29.8ZM591.89 30.8V53H593.89V30.8H591.89ZM592.89 52H584.75V54H592.89V52ZM585.75 53V1.2H583.75V53H585.75ZM595.85 24.4C597.637 24.4 599.158 23.9382 600.204 22.8274L598.747 21.4566C598.214 22.0231 597.318 22.4 595.85 22.4V24.4ZM600.183 22.8491C601.301 21.7311 601.734 19.996 601.734 17.924H599.734C599.734 19.7987 599.328 20.8755 598.769 21.4349L600.183 22.8491ZM601.734 17.924V13.928H599.734V17.924H601.734ZM601.734 13.928C601.734 11.9739 601.382 10.3301 600.47 9.22229L598.926 10.4937C599.395 11.0632 599.734 12.1327 599.734 13.928H601.734ZM600.492 9.25055C599.599 8.08329 598.213 7.6 596.59 7.6V9.6C597.828 9.6 598.513 9.95537 598.903 10.4655L600.492 9.25055ZM596.59 7.6H592.89V9.6H596.59V7.6ZM591.89 8.6V23.4H593.89V8.6H591.89ZM592.89 24.4H595.85V22.4H592.89V24.4ZM621.995 1.2V0.199997H620.995V1.2H621.995ZM644.195 1.2H645.195V0.199997H644.195V1.2ZM644.195 8.6V9.6H645.195V8.6H644.195ZM630.135 8.6V7.6H629.135V8.6H630.135ZM630.135 22.29H629.135V23.29H630.135V22.29ZM641.309 22.29H642.309V21.29H641.309V22.29ZM641.309 29.69V30.69H642.309V29.69H641.309ZM630.135 29.69V28.69H629.135V29.69H630.135ZM630.135 45.6H629.135V46.6H630.135V45.6ZM644.195 45.6H645.195V44.6H644.195V45.6ZM644.195 53V54H645.195V53H644.195ZM621.995 53H620.995V54H621.995V53ZM621.995 2.2H644.195V0.199997H621.995V2.2ZM643.195 1.2V8.6H645.195V1.2H643.195ZM644.195 7.6H630.135V9.6H644.195V7.6ZM629.135 8.6V22.29H631.135V8.6H629.135ZM630.135 23.29H641.309V21.29H630.135V23.29ZM640.309 22.29V29.69H642.309V22.29H640.309ZM641.309 28.69H630.135V30.69H641.309V28.69ZM629.135 29.69V45.6H631.135V29.69H629.135ZM630.135 46.6H644.195V44.6H630.135V46.6ZM643.195 45.6V53H645.195V45.6H643.195ZM644.195 52H621.995V54H644.195V52ZM622.995 53V1.2H620.995V53H622.995ZM658.051 50.41L657.304 51.0754L657.311 51.0835L658.051 50.41ZM655.017 37.756V36.756H654.017V37.756H655.017ZM662.713 37.756H663.713V36.756H662.713V37.756ZM670.039 45.156L669.289 44.4944L669.286 44.4975L670.039 45.156ZM669.669 35.462L668.807 35.9691L668.813 35.9803L669.669 35.462ZM664.193 29.468L663.531 30.2179L663.536 30.2223L664.193 29.468ZM657.163 21.476L656.287 21.9586L656.291 21.9663L657.163 21.476ZM658.273 3.864L659.004 4.54636L659.011 4.53827L658.273 3.864ZM676.107 3.864L675.352 4.52018L675.36 4.52892L675.367 4.53749L676.107 3.864ZM679.141 15.63V16.63H680.141V15.63H679.141ZM671.445 15.63H670.445V16.63H671.445V15.63ZM670.409 9.118L669.637 9.7537L669.646 9.76525L669.656 9.7765L670.409 9.118ZM664.785 18.072L663.93 18.5903L663.935 18.5996L663.941 18.6089L664.785 18.072ZM670.335 23.992L669.678 24.7463L669.678 24.7466L670.335 23.992ZM677.365 32.058L676.481 32.5267L677.365 32.058ZM676.107 50.336L675.376 49.6531L675.368 49.6617L676.107 50.336ZM667.005 52.74C663.246 52.74 660.568 51.6884 658.79 49.7365L657.311 51.0835C659.578 53.5716 662.87 54.74 667.005 54.74V52.74ZM658.797 49.7446C656.991 47.7179 656.017 44.7574 656.017 40.716H654.017C654.017 45.0613 655.065 48.5634 657.304 51.0754L658.797 49.7446ZM656.017 40.716V37.756H654.017V40.716H656.017ZM655.017 38.756H662.713V36.756H655.017V38.756ZM661.713 37.756V41.308H663.713V37.756H661.713ZM661.713 41.308C661.713 43.1007 662.085 44.6315 663.001 45.7244C663.945 46.8511 665.32 47.34 666.931 47.34V45.34C665.73 45.34 664.995 44.9902 664.534 44.4396C664.044 43.8552 663.713 42.87 663.713 41.308H661.713ZM666.931 47.34C668.503 47.34 669.855 46.8845 670.791 45.8145L669.286 44.4975C668.841 45.0062 668.121 45.34 666.931 45.34V47.34ZM670.789 45.8176C671.765 44.7112 672.149 43.0847 672.149 41.16H670.149C670.149 42.886 669.793 43.9235 669.289 44.4944L670.789 45.8176ZM672.149 41.16C672.149 38.8328 671.618 36.749 670.524 34.9437L668.813 35.9803C669.693 37.431 670.149 39.1459 670.149 41.16H672.149ZM670.531 34.955C669.462 33.1378 667.54 31.0554 664.849 28.7137L663.536 30.2223C666.174 32.518 667.902 34.4316 668.807 35.969L670.531 34.955ZM664.854 28.7182C661.537 25.7908 659.287 23.2133 658.034 20.9857L656.291 21.9663C657.702 24.4747 660.139 27.2252 663.531 30.2178L664.854 28.7182ZM658.039 20.9934C656.795 18.737 656.165 16.1922 656.165 13.336H654.165C654.165 16.4985 654.866 19.3803 656.287 21.9586L658.039 20.9934ZM656.165 13.336C656.165 9.40476 657.157 6.52452 659.004 4.54632L657.542 3.18168C655.244 5.64348 654.165 9.0779 654.165 13.336H656.165ZM659.011 4.53827C660.843 2.53177 663.55 1.46 667.301 1.46V-0.540003C663.158 -0.540003 659.846 0.657561 657.534 3.18973L659.011 4.53827ZM667.301 1.46C671 1.46 673.621 2.52991 675.352 4.52018L676.861 3.20782C674.645 0.659422 671.396 -0.540003 667.301 -0.540003V1.46ZM675.367 4.53749C677.166 6.51136 678.141 9.44089 678.141 13.484H680.141C680.141 9.14044 679.093 5.65664 676.846 3.19051L675.367 4.53749ZM678.141 13.484V15.63H680.141V13.484H678.141ZM679.141 14.63H671.445V16.63H679.141V14.63ZM672.445 15.63V12.966H670.445V15.63H672.445ZM672.445 12.966C672.445 11.1025 672.09 9.52106 671.161 8.45949L669.656 9.7765C670.109 10.2936 670.445 11.2775 670.445 12.966H672.445ZM671.181 8.48229C670.257 7.36125 668.931 6.86 667.375 6.86V8.86C668.482 8.86 669.179 9.19741 669.637 9.7537L671.181 8.48229ZM667.375 6.86C665.806 6.86 664.467 7.34726 663.549 8.465C662.663 9.54497 662.305 11.0539 662.305 12.818H664.305C664.305 11.2768 664.625 10.3067 665.095 9.73399C665.534 9.19908 666.23 8.86 667.375 8.86V6.86ZM662.305 12.818C662.305 14.8784 662.85 16.8086 663.93 18.5903L665.64 17.5537C664.746 16.0794 664.305 14.507 664.305 12.818H662.305ZM663.941 18.6089C665.055 20.3592 666.991 22.4076 669.678 24.7463L670.991 23.2377C668.35 20.9391 666.586 19.0408 665.628 17.5351L663.941 18.6089ZM669.678 24.7466C673.042 27.6714 675.282 30.2656 676.481 32.5267L678.248 31.5893C676.883 29.0158 674.435 26.2326 670.991 23.2374L669.678 24.7466ZM676.481 32.5267C677.674 34.7746 678.289 37.4445 678.289 40.568H680.289C680.289 37.1795 679.621 34.176 678.248 31.5893L676.481 32.5267ZM678.289 40.568C678.289 44.6511 677.269 47.6279 675.376 49.6531L676.837 51.0189C679.187 48.5055 680.289 44.9702 680.289 40.568H678.289ZM675.368 49.6617C673.538 51.6657 670.809 52.74 667.005 52.74V54.74C671.192 54.74 674.531 53.545 676.845 51.0103L675.368 49.6617ZM697.72 8.6H698.72V7.6H697.72V8.6ZM689.21 8.6H688.21V9.6H689.21V8.6ZM689.21 1.2V0.199997H688.21V1.2H689.21ZM714.37 1.2H715.37V0.199997H714.37V1.2ZM714.37 8.6V9.6H715.37V8.6H714.37ZM705.86 8.6V7.6H704.86V8.6H705.86ZM705.86 53V54H706.86V53H705.86ZM697.72 53H696.72V54H697.72V53ZM697.72 7.6H689.21V9.6H697.72V7.6ZM690.21 8.6V1.2H688.21V8.6H690.21ZM689.21 2.2H714.37V0.199997H689.21V2.2ZM713.37 1.2V8.6H715.37V1.2H713.37ZM714.37 7.6H705.86V9.6H714.37V7.6ZM704.86 8.6V53H706.86V8.6H704.86ZM705.86 52H697.72V54H705.86V52ZM698.72 53V8.6H696.72V53H698.72ZM726.377 22.808H725.377V22.8394L725.379 22.8707L726.377 22.808ZM726.377 1.2V0.199997H725.377V1.2H726.377ZM734.517 1.2H735.517V0.199997H734.517V1.2ZM734.517 22.808L735.515 22.8707L735.517 22.8394V22.808H734.517ZM733.481 39.31V40.31H734.42L734.479 39.3727L733.481 39.31ZM727.413 39.31L726.415 39.3727L726.474 40.31H727.413V39.31ZM726.525 45.156V44.156H725.525V45.156H726.525ZM734.369 45.156H735.369V44.156H734.369V45.156ZM734.369 53V54H735.369V53H734.369ZM726.525 53H725.525V54H726.525V53ZM727.377 22.808V1.2H725.377V22.808H727.377ZM726.377 2.2H734.517V0.199997H726.377V2.2ZM733.517 1.2V22.808H735.517V1.2H733.517ZM733.519 22.7453L732.483 39.2473L734.479 39.3727L735.515 22.8707L733.519 22.7453ZM733.481 38.31H727.413V40.31H733.481V38.31ZM728.411 39.2473L727.375 22.7453L725.379 22.8707L726.415 39.3727L728.411 39.2473ZM726.525 46.156H734.369V44.156H726.525V46.156ZM733.369 45.156V53H735.369V45.156H733.369ZM734.369 52H726.525V54H734.369V52ZM727.525 53V45.156H725.525V53H727.525Z" fill="black" fill-opacity="0.14"/>
</svg>
